Palmer Penguins
…
peng_final

# Resampling results
# Manual resampling 
# A tibble: 1 × 6
  splits           id               .metrics .notes   .predictions .workflow 
  <list>           <chr>            <list>   <list>   <list>       <list>    
1 <split [249/84]> train/test split <tibble> <tibble> <tibble>     <workflow>

Code

collect_predictions(peng_final)

# A tibble: 84 × 7
   .pred_class .pred_female .pred_male id                .row sex    .config    
   <fct>              <dbl>      <dbl> <chr>            <int> <fct>  <chr>      
 1 female        0.597         0.403   train/test split     2 female Preprocess…
 2 female        0.928         0.0724  train/test split     3 female Preprocess…
 3 female        0.647         0.353   train/test split     4 female Preprocess…
 4 male          0.219         0.781   train/test split    18 female Preprocess…
 5 male          0.0132        0.987   train/test split    25 male   Preprocess…
 6 female        0.970         0.0298  train/test split    28 female Preprocess…
 7 male          0.0000232     1.00    train/test split    31 male   Preprocess…
 8 female        0.872         0.128   train/test split    34 female Preprocess…
 9 female        0.998         0.00250 train/test split    38 female Preprocess…
10 male          0.00000253    1.00    train/test split    39 male   Preprocess…
# ℹ 74 more rows
…
